{"isSuccess":true,"code":"0","result":{"standbyText":"","pageIdx":1,"pageSize":20,"totalCount":72,"totalPage":4,"hasNext":true,"wareInfo":[{"wareId":1082263,"wname":"维达(Vinda) 抽纸 超韧3层150抽软抽纸巾*24包(中规格) 整箱销售","imageurl":"http://m.360buyimg.com/n1/s257x257_jfs/t1/80984/26/5525/274913/5d3ab5e5Ec6a71f1f/436104af9917fe09.jpg","squareImageUrl":"http://m.360buyimg.com/n1/s257x257_jfs/t1/80984/26/5525/274913/5d3ab5e5Ec6a71f1f/436104af9917fe09.jpg","mPrice":"128.00","jdPrice":"79.90","promotionFlag":{},"promotionList":[],"good":"99%","flashSale":0,"totalCount":2149525,"isNew":false,"isHot":true,"stock":-1,"isUnderCarriage":0,"isPreSale":false,"addCart":false,"addCartAbTest":false,"addCartIcon":"http://m.360buyimg.com/mobileshopcms/jfs/t25606/209/856901863/3034/fb7f2271/5b7fc970N2b378e00.png","jdDeliver":false,"leaseSku":false,"picType":1,"cid":"15901","cid2":"15902","markTag":{"isHot":{"tagId":"","type":2,"tagText":"热销","tagColor":"#F0250F"}},"floatLayersOnSku":[{}],"secKillType":false,"flashPurchaseType":false,"plus95":false},{"wareId":1241849,"wname":"维达(Vinda) 卷纸 蓝色经典4层140g卫生纸巾*27卷（整箱销售）","imageurl":"http://m.360buyimg.com/n1/s257x257_jfs/t1/40215/37/12462/482504/5d3ab584Ee44c0ec7/278f3a7d5a3e6cbd.jpg","squareImageUrl":"http://m.360buyimg.com/n1/s257x257_jfs/t1/40215/37/12462/482504/5d3ab584Ee44c0ec7/278f3a7d5a3e6cbd.jpg","mPrice":"118.00","jdPrice":"56.90","promotionFlag":{},"promotionList":[],"good":"99%","flashSale":0,"totalCount":8215564,"isNew":false,"isHot":true,"stock":-1,"isUnderCarriage":0,"isPreSale":false,"addCart":false,"addCartAbTest":false,"addCartIcon":"http://m.360buyimg.com/mobileshopcms/jfs/t25606/209/856901863/3034/fb7f2271/5b7fc970N2b378e00.png","jdDeliver":false,"leaseSku":false,"picType":1,"cid":"15901","cid2":"15902","markTag":{"isHot":{"tagId":"","type":2,"tagText":"热销","tagColor":"#F0250F"}},"floatLayersOnSku":[{}],"secKillType":false,"flashPurchaseType":false,"plus95":false},{"wareId":2828950,"wname":"维达(Vinda) 抽纸 超韧3层130抽软抽*24包纸巾(小规格) 整箱销售（新旧产品随机发货）","imageurl":"http://m.360buyimg.com/n1/s257x257_jfs/t1/43720/32/10288/422778/5d3ab527E5730f89c/84c160cdec8e3671.jpg","squareImageUrl":"http://m.360buyimg.com/n1/s257x257_jfs/t1/43720/32/10288/422778/5d3ab527E5730f89c/84c160cdec8e3671.jpg","mPrice":"105.00","jdPrice":"59.90","promotionFlag":{},"promotionList":[],"good":"99%","flashSale":0,"totalCount":4571316,"isNew":false,"isHot":true,"stock":-1,"isUnderCarriage":0,"isPreSale":false,"addCart":false,"addCartAbTest":false,"addCartIcon":"http://m.360buyimg.com/mobileshopcms/jfs/t25606/209/856901863/3034/fb7f2271/5b7fc970N2b378e00.png","jdDeliver":false,"leaseSku":false,"picType":1,"cid":"15901","cid2":"15902","markTag":{"isHot":{"tagId":"","type":2,"tagText":"热销","tagColor":"#F0250F"}},"floatLayersOnSku":[{}],"secKillType":false,"flashPurchaseType":false,"plus95":false},{"wareId":209951,"wname":"维达 V4069 蓝色经典140g卷纸 10卷/提","imageurl":"http://m.360buyimg.com/n1/s257x257_jfs/t1/55112/11/3312/147107/5d10aaddEa8934fcf/955d6355cac7e4bc.jpg","squareImageUrl":"http://m.360buyimg.com/n1/s257x257_jfs/t1/55112/11/3312/147107/5d10aaddEa8934fcf/955d6355cac7e4bc.jpg","mPrice":"28.00","jdPrice":"20.90","promotionFlag":{},"promotionList":[],"good":"99%","flashSale":0,"totalCount":4862771,"isNew":false,"isHot":true,"stock":-1,"isUnderCarriage":0,"isPreSale":false,"addCart":false,"addCartAbTest":false,"addCartIcon":"http://m.360buyimg.com/mobileshopcms/jfs/t25606/209/856901863/3034/fb7f2271/5b7fc970N2b378e00.png","jdDeliver":false,"leaseSku":false,"picType":1,"cid":"15901","cid2":"15902","markTag":{"isHot":{"tagId":"","type":2,"tagText":"热销","tagColor":"#F0250F"}},"floatLayersOnSku":[{}],"secKillType":false,"flashPurchaseType":false,"plus95":false},{"wareId":8833875,"wname":"维达(Vinda) 抽纸纸巾 细韧3层120抽软抽*24包(小规格) 整箱销售","imageurl":"http://m.360buyimg.com/n1/s257x257_jfs/t1/76948/2/6049/479130/5d4289f1Ea3e3edab/86a562f6e5453a6a.jpg","squareImageUrl":"http://m.360buyimg.com/n1/s257x257_jfs/t1/76948/2/6049/479130/5d4289f1Ea3e3edab/86a562f6e5453a6a.jpg","mPrice":"105.00","jdPrice":"47.90","promotionFlag":{},"promotionList":[{"promFlag":19,"extType":15,"promName":{"longer":"2件9折","short":"多买优惠"}}],"good":"99%","flashSale":0,"totalCount":730111,"promFlag":19,"promName":"多买优惠","isNew":false,"isHot":true,"stock":-1,"isUnderCarriage":0,"isPreSale":false,"addCart":false,"addCartAbTest":false,"addCartIcon":"http://m.360buyimg.com/mobileshopcms/jfs/t25606/209/856901863/3034/fb7f2271/5b7fc970N2b378e00.png","jdDeliver":false,"leaseSku":false,"picType":1,"cid":"15901","cid2":"15902","markTag":{"promotionList":[{"longer":{"tagId":"TAB_VAR_071","type":1,"tagText":"2件9折","tagColor":"","promFlag":19},"short":{"tagId":"TAB_VAR_071","type":1,"tagText":"多买优惠","tagColor":"","promFlag":19}}],"isHot":{"tagId":"","type":2,"tagText":"热销","tagColor":"#F0250F"}},"floatLayersOnSku":[{}],"secKillType":false,"flashPurchaseType":false,"plus95":false},{"wareId":1131257,"wname":"维达(Vinda) 无芯卷纸 超韧4层140g卫生纸巾*12卷（3层4层交替发货）","imageurl":"http://m.360buyimg.com/n1/s257x257_jfs/t1/60574/34/4768/211283/5d2fe0b0E40c91b62/29e95264e47afed1.jpg","squareImageUrl":"http://m.360buyimg.com/n1/s257x257_jfs/t1/60574/34/4768/211283/5d2fe0b0E40c91b62/29e95264e47afed1.jpg","mPrice":"42.00","jdPrice":"20.90","promotionFlag":{},"promotionList":[],"good":"99%","flashSale":0,"totalCount":1736179,"isNew":false,"isHot":true,"stock":-1,"isUnderCarriage":0,"isPreSale":false,"addCart":false,"addCartAbTest":false,"addCartIcon":"http://m.360buyimg.com/mobileshopcms/jfs/t25606/209/856901863/3034/fb7f2271/5b7fc970N2b378e00.png","jdDeliver":false,"leaseSku":false,"picType":1,"cid":"15901","cid2":"15902","markTag":{"isHot":{"tagId":"","type":2,"tagText":"热销","tagColor":"#F0250F"}},"floatLayersOnSku":[{}],"secKillType":false,"flashPurchaseType":false,"plus95":false},{"wareId":1190594,"wname":"维达(Vinda) 手帕纸 超韧4层纸巾*18包(无香)(新旧产品交替发货）","imageurl":"http://m.360buyimg.com/n1/s257x257_jfs/t1/47077/8/18/188561/5cd18631E31dbd178/8c282ef377cedfb2.jpg","squareImageUrl":"http://m.360buyimg.com/n1/s257x257_jfs/t1/47077/8/18/188561/5cd18631E31dbd178/8c282ef377cedfb2.jpg","mPrice":"20.00","jdPrice":"9.90","promotionFlag":{},"promotionList":[],"good":"99%","flashSale":0,"totalCount":2961436,"isNew":false,"isHot":false,"stock":-1,"isUnderCarriage":0,"isPreSale":false,"addCart":false,"addCartAbTest":false,"addCartIcon":"http://m.360buyimg.com/mobileshopcms/jfs/t25606/209/856901863/3034/fb7f2271/5b7fc970N2b378e00.png","jdDeliver":false,"leaseSku":false,"picType":1,"cid":"15901","cid2":"15902","markTag":{},"floatLayersOnSku":[{}],"secKillType":false,"flashPurchaseType":false,"plus95":false},{"wareId":925980,"wname":"维达(Vinda) 卷纸 超韧4层 180g 卫生纸*10卷","imageurl":"http://m.360buyimg.com/n1/s257x257_jfs/t21076/115/2195853590/321458/2380a8a8/5b480600Nf2b2ad8d.jpg","squareImageUrl":"http://m.360buyimg.com/n1/s257x257_jfs/t21076/115/2195853590/321458/2380a8a8/5b480600Nf2b2ad8d.jpg","mPrice":"52.90","jdPrice":"24.20","promotionFlag":{},"promotionList":[{"promFlag":3,"promName":{"longer":"限购","short":"限购"}}],"good":"99%","flashSale":0,"totalCount":961538,"promFlag":3,"promName":"限购","isNew":false,"isHot":false,"stock":-1,"isUnderCarriage":0,"isPreSale":false,"addCart":false,"addCartAbTest":false,"addCartIcon":"http://m.360buyimg.com/mobileshopcms/jfs/t25606/209/856901863/3034/fb7f2271/5b7fc970N2b378e00.png","jdDeliver":false,"leaseSku":false,"picType":1,"cid":"15901","cid2":"15902","markTag":{"promotionList":[{"longer":{"tagId":"TAB_VAR_071","type":1,"tagText":"限购","tagColor":"","promFlag":3},"short":{"tagId":"TAB_VAR_071","type":1,"tagText":"限购","tagColor":"","promFlag":3}}]},"floatLayersOnSku":[{}],"secKillType":false,"flashPurchaseType":false,"plus95":false},{"wareId":5920357,"wname":"维达(Vinda) 卷纸 超韧无芯卫生纸巾4层130g*30卷 整箱销售","imageurl":"http://m.360buyimg.com/n1/s257x257_jfs/t1/55934/14/7180/103774/5d4b7febE489066ef/71df300afe0ff8ab.jpg","squareImageUrl":"http://m.360buyimg.com/n1/s257x257_jfs/t1/55934/14/7180/103774/5d4b7febE489066ef/71df300afe0ff8ab.jpg","mPrice":"115.00","jdPrice":"50.90","promotionFlag":{},"promotionList":[],"good":"99%","flashSale":0,"totalCount":206947,"isNew":false,"isHot":false,"stock":-1,"isUnderCarriage":0,"isPreSale":false,"addCart":false,"addCartAbTest":false,"addCartIcon":"http://m.360buyimg.com/mobileshopcms/jfs/t25606/209/856901863/3034/fb7f2271/5b7fc970N2b378e00.png","jdDeliver":false,"leaseSku":false,"picType":1,"cid":"15901","cid2":"15902","markTag":{},"floatLayersOnSku":[{}],"secKillType":false,"flashPurchaseType":false,"plus95":false},{"wareId":2735100,"wname":"维达(Vinda) 抽纸 倍韧2层180抽软抽*24包纸巾(小规格) 整箱销售","imageurl":"http://m.360buyimg.com/n1/s257x257_jfs/t1/67808/6/5503/388606/5d3abd2fE079ca248/b6925d76179c67fb.jpg","squareImageUrl":"http://m.360buyimg.com/n1/s257x257_jfs/t1/67808/6/5503/388606/5d3abd2fE079ca248/b6925d76179c67fb.jpg","mPrice":"119.00","jdPrice":"59.90","promotionFlag":{},"promotionList":[],"good":"99%","flashSale":0,"totalCount":1255523,"isNew":false,"isHot":true,"stock":-1,"isUnderCarriage":0,"isPreSale":false,"addCart":false,"addCartAbTest":false,"addCartIcon":"http://m.360buyimg.com/mobileshopcms/jfs/t25606/209/856901863/3034/fb7f2271/5b7fc970N2b378e00.png","jdDeliver":false,"leaseSku":false,"picType":1,"cid":"15901","cid2":"15902","markTag":{"isHot":{"tagId":"","type":2,"tagText":"热销","tagColor":"#F0250F"}},"floatLayersOnSku":[{}],"secKillType":false,"flashPurchaseType":false,"plus95":false},{"wareId":2995994,"wname":"维达(Vinda) 卷纸 棉韧4层160g卫生纸巾*27卷(整箱销售)","imageurl":"http://m.360buyimg.com/n1/s257x257_jfs/t1/75998/23/6601/183089/5d4b80c3E741a43a8/40da1c7adba7411a.jpg","squareImageUrl":"http://m.360buyimg.com/n1/s257x257_jfs/t1/75998/23/6601/183089/5d4b80c3E741a43a8/40da1c7adba7411a.jpg","mPrice":"159.00","jdPrice":"79.90","promotionFlag":{},"promotionList":[],"good":"99%","flashSale":0,"totalCount":170034,"isNew":false,"isHot":true,"stock":-1,"isUnderCarriage":0,"isPreSale":false,"addCart":false,"addCartAbTest":false,"addCartIcon":"http://m.360buyimg.com/mobileshopcms/jfs/t25606/209/856901863/3034/fb7f2271/5b7fc970N2b378e00.png","jdDeliver":false,"leaseSku":false,"picType":1,"cid":"15901","cid2":"15902","markTag":{"isHot":{"tagId":"","type":2,"tagText":"热销","tagColor":"#F0250F"}},"floatLayersOnSku":[{}],"secKillType":false,"flashPurchaseType":false,"plus95":false},{"wareId":276077,"wname":"维达(Vinda) 擦手纸纸巾 商用系列抽纸200抽*20包 大规格（酒店厨房餐厅卫生间擦手纸222mm*226mm）整箱销售","imageurl":"http://m.360buyimg.com/n1/s257x257_jfs/t12700/36/62589012/316558/48075aa0/5a02bcecN1ee6d8f0.jpg","squareImageUrl":"http://m.360buyimg.com/n1/s257x257_jfs/t12700/36/62589012/316558/48075aa0/5a02bcecN1ee6d8f0.jpg","mPrice":"260.00","jdPrice":"159.00","promotionFlag":{},"promotionList":[],"good":"99%","flashSale":0,"totalCount":332118,"isNew":false,"isHot":true,"stock":-1,"isUnderCarriage":0,"isPreSale":false,"addCart":false,"addCartAbTest":false,"addCartIcon":"http://m.360buyimg.com/mobileshopcms/jfs/t25606/209/856901863/3034/fb7f2271/5b7fc970N2b378e00.png","jdDeliver":false,"leaseSku":false,"picType":1,"cid":"15901","cid2":"15902","markTag":{"isHot":{"tagId":"","type":2,"tagText":"热销","tagColor":"#F0250F"}},"floatLayersOnSku":[{}],"secKillType":false,"flashPurchaseType":false,"plus95":false},{"wareId":209954,"wname":"维达(Vinda) 卷纸纸巾 厨房用纸 75节*2卷 水滴花纹","imageurl":"http://m.360buyimg.com/n1/s257x257_jfs/t28021/270/1211783142/368165/bced6db0/5cd92a7bNc3ce5cf5.jpg","squareImageUrl":"http://m.360buyimg.com/n1/s257x257_jfs/t28021/270/1211783142/368165/bced6db0/5cd92a7bNc3ce5cf5.jpg","mPrice":"19.50","jdPrice":"8.90","promotionFlag":{},"promotionList":[],"good":"99%","flashSale":0,"totalCount":1118436,"isNew":false,"isHot":false,"stock":-1,"isUnderCarriage":0,"isPreSale":false,"addCart":false,"addCartAbTest":false,"addCartIcon":"http://m.360buyimg.com/mobileshopcms/jfs/t25606/209/856901863/3034/fb7f2271/5b7fc970N2b378e00.png","jdDeliver":false,"leaseSku":false,"picType":1,"cid":"15901","cid2":"15902","markTag":{},"floatLayersOnSku":[{}],"secKillType":false,"flashPurchaseType":false,"plus95":false},{"wareId":100000348552,"wname":"维达（Vinda）超迷你手帕纸 超韧4层5张印花纸巾*24包(幸福小印花) 轻盈出行","imageurl":"http://m.360buyimg.com/n1/s257x257_jfs/t27703/347/968451861/300567/9bd22ae9/5bbdc869N6b21084f.jpg","squareImageUrl":"http://m.360buyimg.com/n1/s257x257_jfs/t27703/347/968451861/300567/9bd22ae9/5bbdc869N6b21084f.jpg","mPrice":"22.00","jdPrice":"9.90","promotionFlag":{},"promotionList":[],"good":"99%","flashSale":0,"totalCount":1295849,"isNew":false,"isHot":false,"stock":-1,"isUnderCarriage":0,"isPreSale":false,"addCart":false,"addCartAbTest":false,"addCartIcon":"http://m.360buyimg.com/mobileshopcms/jfs/t25606/209/856901863/3034/fb7f2271/5b7fc970N2b378e00.png","jdDeliver":false,"leaseSku":false,"picType":1,"cid":"15901","cid2":"15902","markTag":{},"floatLayersOnSku":[{}],"secKillType":false,"flashPurchaseType":false,"plus95":false},{"wareId":5771595,"wname":"维达(Vinda) 厨房湿巾纸巾 26片装*5包（一片轻松去油污）","imageurl":"http://m.360buyimg.com/n1/s257x257_jfs/t12679/184/1434772708/232611/ec9fe559/5a1fd6c3N43f1b34f.jpg","squareImageUrl":"http://m.360buyimg.com/n1/s257x257_jfs/t12679/184/1434772708/232611/ec9fe559/5a1fd6c3N43f1b34f.jpg","mPrice":"109.00","jdPrice":"52.90","promotionFlag":{},"promotionList":[{"promFlag":19,"extType":15,"promName":{"longer":"2件9折","short":"多买优惠"}}],"good":"99%","flashSale":0,"totalCount":95431,"promFlag":19,"promName":"多买优惠","isNew":false,"isHot":false,"stock":-1,"isUnderCarriage":0,"isPreSale":false,"addCart":false,"addCartAbTest":false,"addCartIcon":"http://m.360buyimg.com/mobileshopcms/jfs/t25606/209/856901863/3034/fb7f2271/5b7fc970N2b378e00.png","jdDeliver":false,"leaseSku":false,"picType":1,"cid":"15901","cid2":"15902","markTag":{"promotionList":[{"longer":{"tagId":"TAB_VAR_071","type":1,"tagText":"2件9折","tagColor":"","promFlag":19},"short":{"tagId":"TAB_VAR_071","type":1,"tagText":"多买优惠","tagColor":"","promFlag":19}}]},"floatLayersOnSku":[{}],"secKillType":false,"flashPurchaseType":false,"plus95":false},{"wareId":1327330,"wname":"维达(Vinda) 抽纸纸巾 超韧3层130抽软抽*18包(中规格) 整箱销售","imageurl":"http://m.360buyimg.com/n1/s257x257_jfs/t1/49523/39/6932/150559/5d48dd4aE4824df68/8a744e381779244e.jpg","squareImageUrl":"http://m.360buyimg.com/n1/s257x257_jfs/t1/49523/39/6932/150559/5d48dd4aE4824df68/8a744e381779244e.jpg","mPrice":"93.00","jdPrice":"55.50","promotionFlag":{},"promotionList":[],"good":"99%","flashSale":0,"totalCount":838784,"isNew":false,"isHot":false,"stock":-1,"isUnderCarriage":0,"isPreSale":false,"addCart":false,"addCartAbTest":false,"addCartIcon":"http://m.360buyimg.com/mobileshopcms/jfs/t25606/209/856901863/3034/fb7f2271/5b7fc970N2b378e00.png","jdDeliver":false,"leaseSku":false,"picType":1,"cid":"15901","cid2":"15902","markTag":{},"floatLayersOnSku":[{}],"secKillType":false,"flashPurchaseType":false,"plus95":false},{"wareId":1327325,"wname":"维达（Vinda) 湿厕纸纸巾 40片特惠装","imageurl":"http://m.360buyimg.com/n1/s257x257_jfs/t13564/174/1833736833/263255/2e61e772/5a29ff46N0be38822.jpg","squareImageUrl":"http://m.360buyimg.com/n1/s257x257_jfs/t13564/174/1833736833/263255/2e61e772/5a29ff46N0be38822.jpg","mPrice":"18.90","jdPrice":"8.80","promotionFlag":{},"promotionList":[{"promFlag":3,"promName":{"longer":"限购","short":"限购"}},{"promFlag":19,"extType":15,"promName":{"longer":"2件9折","short":"多买优惠"}}],"good":"99%","flashSale":0,"totalCount":457863,"promFlag":3,"promName":"限购","isNew":false,"isHot":false,"stock":-1,"isUnderCarriage":0,"isPreSale":false,"addCart":false,"addCartAbTest":false,"addCartIcon":"http://m.360buyimg.com/mobileshopcms/jfs/t25606/209/856901863/3034/fb7f2271/5b7fc970N2b378e00.png","jdDeliver":false,"leaseSku":false,"picType":1,"cid":"15901","cid2":"15902","markTag":{"promotionList":[{"longer":{"tagId":"TAB_VAR_071","type":1,"tagText":"限购","tagColor":"","promFlag":3},"short":{"tagId":"TAB_VAR_071","type":1,"tagText":"限购","tagColor":"","promFlag":3}},{"longer":{"tagId":"TAB_VAR_071","type":1,"tagText":"2件9折","tagColor":"","promFlag":19},"short":{"tagId":"TAB_VAR_071","type":1,"tagText":"多买优惠","tagColor":"","promFlag":19}}]},"floatLayersOnSku":[{}],"secKillType":false,"flashPurchaseType":false,"plus95":false},{"wareId":854240,"wname":"维达(Vinda) 抽纸纸巾 超韧3层130抽软抽*6包(小规格)","imageurl":"http://m.360buyimg.com/n1/s257x257_jfs/t1/54816/12/5338/316122/5d3013f3E4d427def/bbc4347f75b0d7b1.jpg","squareImageUrl":"http://m.360buyimg.com/n1/s257x257_jfs/t1/54816/12/5338/316122/5d3013f3E4d427def/bbc4347f75b0d7b1.jpg","mPrice":"22.00","jdPrice":"15.90","promotionFlag":{},"promotionList":[],"good":"99%","flashSale":0,"totalCount":4498050,"isNew":false,"isHot":false,"stock":-1,"isUnderCarriage":0,"isPreSale":false,"addCart":false,"addCartAbTest":false,"addCartIcon":"http://m.360buyimg.com/mobileshopcms/jfs/t25606/209/856901863/3034/fb7f2271/5b7fc970N2b378e00.png","jdDeliver":false,"leaseSku":false,"picType":1,"cid":"15901","cid2":"15902","markTag":{},"floatLayersOnSku":[{}],"secKillType":false,"flashPurchaseType":false,"plus95":false},{"wareId":1294243,"wname":"维达(Vinda) 婴儿抽纸 3层150抽软抽面巾纸*18包纸巾 (中规格)整箱销售","imageurl":"http://m.360buyimg.com/n1/s257x257_jfs/t1/56540/5/6528/395939/5d4286efE7d936df8/af0cc4c089ef8309.jpg","squareImageUrl":"http://m.360buyimg.com/n1/s257x257_jfs/t1/56540/5/6528/395939/5d4286efE7d936df8/af0cc4c089ef8309.jpg","mPrice":"125.00","jdPrice":"69.90","promotionFlag":{},"promotionList":[],"good":"99%","flashSale":0,"totalCount":970396,"isNew":false,"isHot":true,"stock":-1,"isUnderCarriage":0,"isPreSale":false,"addCart":false,"addCartAbTest":false,"addCartIcon":"http://m.360buyimg.com/mobileshopcms/jfs/t25606/209/856901863/3034/fb7f2271/5b7fc970N2b378e00.png","jdDeliver":false,"leaseSku":false,"picType":1,"cid":"15901","cid2":"15902","markTag":{"isHot":{"tagId":"","type":2,"tagText":"热销","tagColor":"#F0250F"}},"floatLayersOnSku":[{}],"secKillType":false,"flashPurchaseType":false,"plus95":false},{"wareId":4577029,"wname":"维达(Vinda) 抽纸 棉韧3层108抽软抽*24包纸巾(小规格) 整箱销售","imageurl":"http://m.360buyimg.com/n1/s257x257_jfs/t1/63407/29/10726/171527/5d8348e1E6aacfd9e/3304c3f5794838ca.jpg","squareImageUrl":"http://m.360buyimg.com/n1/s257x257_jfs/t1/63407/29/10726/171527/5d8348e1E6aacfd9e/3304c3f5794838ca.jpg","mPrice":"115.00","jdPrice":"59.90","promotionFlag":{},"promotionList":[],"good":"99%","flashSale":0,"totalCount":1462269,"isNew":false,"isHot":true,"stock":-1,"isUnderCarriage":0,"isPreSale":false,"addCart":false,"addCartAbTest":false,"addCartIcon":"http://m.360buyimg.com/mobileshopcms/jfs/t25606/209/856901863/3034/fb7f2271/5b7fc970N2b378e00.png","jdDeliver":false,"leaseSku":false,"picType":1,"cid":"15901","cid2":"15902","markTag":{"isHot":{"tagId":"","type":2,"tagText":"热销","tagColor":"#F0250F"}},"floatLayersOnSku":[{}],"secKillType":false,"flashPurchaseType":false,"plus95":false}],"isLonger":false,"topWare":[],"category":[{"id":12449307,"shopId":1000001683,"title":"抽纸","open":false},{"id":12449312,"shopId":1000001683,"title":"卷纸","open":false},{"id":12449317,"shopId":1000001683,"title":"手帕纸&湿巾","open":false},{"id":12449320,"shopId":1000001683,"title":"厨房用纸","open":false},{"id":12449319,"shopId":1000001683,"title":"湿厕纸","open":false},{"id":12449322,"shopId":1000001683,"title":"精选商用","open":false},{"id":12449321,"shopId":1000001683,"title":"新品上市","open":false}],"viewType":0,"addCart":false,"showJdDeliver":false,"inStock":true,"inStockText":"仅看有货","searchMidPoint":{"logid":"5b50081e1d7a419b81aa145a84e9c823","pvid":"5b50081e1d7a419b81aa145a84e9c823","mtest":"dnn-shop-v01,feature-log,~"}}}